[
    {
        "index" : 0,
        "id": "Declaración de IVA (IGIC, IPSI) del último ejercicio oficial cerrado",
        "expand": false,
        "state": "En expediente",
        "selectedAction" : "Visualizar"
    },
    {
        "index" : 1,
        "id": "Declaración de IVA (IGIC, IPSI) periódicas del ejercicio en curso",
        "expand": false,
        "state": "No aportado",
        "selectedAction" : "Visualizar"
    }
]